lab5-regfile/reg_ss.vcd
$date
	Sat Apr  8 23:22:23 2023
$end
$version
	Icarus Verilog
$end
$timescale
	1ps
$end
$scope module test_regfile $end
$var wire 16 ! rt_data_B [15:0] $end
$var wire 16 " rt_data_A [15:0] $end
$var wire 16 # rs_data_B [15:0] $end
$var wire 16 $ rs_data_A [15:0] $end
$var reg 1 % clk $end
$var reg 16 & expected_rs_A [15:0] $end
$var reg 16 ' expected_rs_B [15:0] $end
$var reg 16 ( expected_rt_A [15:0] $end
$var reg 16 ) expected_rt_B [15:0] $end
$var reg 1 * gwe $end
$var reg 3 + rd_A [2:0] $end
$var reg 3 , rd_B [2:0] $end
$var reg 3 - rs_A [2:0] $end
$var reg 3 . rs_B [2:0] $end
$var reg 1 / rst $end
$var reg 3 0 rt_A [2:0] $end
$var reg 3 1 rt_B [2:0] $end
$var reg 16 2 wdata_A [15:0] $end
$var reg 16 3 wdata_B [15:0] $end
$var reg 1 4 wen_A $end
$var reg 1 5 wen_B $end
$var integer 32 6 errors [31:0] $end
$var integer 32 7 input_file [31:0] $end
$var integer 32 8 output_file [31:0] $end
$var integer 32 9 tests [31:0] $end
$scope module regfile_ss $end
$var wire 1 % clk $end
$var wire 1 * gwe $end
$var wire 3 : i_rd_A [2:0] $end
$var wire 3 ; i_rd_B [2:0] $end
$var wire 1 4 i_rd_we_A $end
$var wire 1 5 i_rd_we_B $end
$var wire 3 < i_rs_A [2:0] $end
$var wire 3 = i_rs_B [2:0] $end
$var wire 3 > i_rt_A [2:0] $end
$var wire 3 ? i_rt_B [2:0] $end
$var wire 16 @ i_wdata_A [15:0] $end
$var wire 16 A i_wdata_B [15:0] $end
$var wire 1 / rst $end
$var wire 16 B rt_out_B [15:0] $end
$var wire 16 C rt_out_A [15:0] $end
$var wire 16 D rs_out_B [15:0] $end
$var wire 16 E rs_out_A [15:0] $end
$var wire 16 F o_rt_data_B [15:0] $end
$var wire 16 G o_rt_data_A [15:0] $end
$var wire 16 H o_rs_data_B [15:0] $end
$var wire 16 I o_rs_data_A [15:0] $end
$scope begin rd_mux[0] $end
$scope module one_reg $end
$var wire 1 % clk $end
$var wire 1 * gwe $end
$var wire 16 J in [15:0] $end
$var wire 16 K out [15:0] $end
$var wire 1 / rst $end
$var wire 1 L we $end
$var reg 16 M state [15:0] $end
$upscope $end
$upscope $end
$scope begin rd_mux[1] $end
$scope module one_reg $end
$var wire 1 % clk $end
$var wire 1 * gwe $end
$var wire 16 N in [15:0] $end
$var wire 16 O out [15:0] $end
$var wire 1 / rst $end
$var wire 1 P we $end
$var reg 16 Q state [15:0] $end
$upscope $end
$upscope $end
$scope begin rd_mux[2] $end
$scope module one_reg $end
$var wire 1 % clk $end
$var wire 1 * gwe $end
$var wire 16 R in [15:0] $end
$var wire 16 S out [15:0] $end
$var wire 1 / rst $end
$var wire 1 T we $end
$var reg 16 U state [15:0] $end
$upscope $end
$upscope $end
$scope begin rd_mux[3] $end
$scope module one_reg $end
$var wire 1 % clk $end
$var wire 1 * gwe $end
$var wire 16 V in [15:0] $end
$var wire 16 W out [15:0] $end
$var wire 1 / rst $end
$var wire 1 X we $end
$var reg 16 Y state [15:0] $end
$upscope $end
$upscope $end
$scope begin rd_mux[4] $end
$scope module one_reg $end
$var wire 1 % clk $end
$var wire 1 * gwe $end
$var wire 16 Z in [15:0] $end
$var wire 16 [ out [15:0] $end
$var wire 1 / rst $end
$var wire 1 \ we $end
$var reg 16 ] state [15:0] $end
$upscope $end
$upscope $end
$scope begin rd_mux[5] $end
$scope module one_reg $end
$var wire 1 % clk $end
$var wire 1 * gwe $end
$var wire 16 ^ in [15:0] $end
$var wire 16 _ out [15:0] $end
$var wire 1 / rst $end
$var wire 1 ` we $end
$var reg 16 a state [15:0] $end
$upscope $end
$upscope $end
$scope begin rd_mux[6] $end
$scope module one_reg $end
$var wire 1 % clk $end
$var wire 1 * gwe $end
$var wire 16 b in [15:0] $end
$var wire 16 c out [15:0] $end
$var wire 1 / rst $end
$var wire 1 d we $end
$var reg 16 e state [15:0] $end
$upscope $end
$upscope $end
$scope begin rd_mux[7] $end
$scope module one_reg $end
$var wire 1 % clk $end
$var wire 1 * gwe $end
$var wire 16 f in [15:0] $end
$var wire 16 g out [15:0] $end
$var wire 1 / rst $end
$var wire 1 h we $end
$var reg 16 i state [15:0] $end
$upscope $end
$upscope $end
$upscope $end
$scope task printPoints $end
$var reg 32 j actual [31:0] $end
$var reg 32 k possible [31:0] $end
$upscope $end
$upscope $end
$enddefinitions $end
#0
$dumpvars
bx k
bx j
bx i
0h
bx g
b0 f
bx e
0d
bx c
b0 b
bx a
0`
bx _
b0 ^
bx ]
0\
bx [
b0 Z
bx Y
0X
bx W
b0 V
bx U
0T
bx S
b0 R
bx Q
0P
bx O
b0 N
bx M
0L
bx K
b0 J
bx I
bx H
bx G
bx F
bx E
bx D
bx C
bx B
b0 A
b0 @
b0 ?
b0 >
b0 =
b0 <
b0 ;
b0 :
b0 9
b10000000000000000000000000000100 8
b10000000000000000000000000000011 7
b0 6
05
04
b0 3
b0 2
b0 1
b0 0
1/
b0 .
b0 -
b0 ,
b0 +
1*
bx )
bx (
bx '
bx &
0%
bx $
bx #
bx "
bx !
$end
#5000
b0 M
b0 Q
b0 U
b0 Y
b0 ]
b0 a
b0 e
b0 i
1%
#6000
b0 !
b0 F
b0 #
b0 H
b0 "
b0 G
b0 $
b0 I
b0 B
b0 D
b0 C
b0 E
b0 K
b0 O
b0 S
b0 W
b0 [
b0 _
b0 c
b0 g
#10000
0%
#15000
1%
#20000
0%
#25000
1%
#30000
0%
#35000
1%
#40000
0%
#45000
1%
#50000
0%
#55000
1%
#60000
0%
#65000
1%
#70000
0%
#75000
1%
#80000
0%
#85000
1%
#90000
0%
#95000
1%
#100000
0%
#105000
1%
0/
#107000
b101000100000010 !
b101000100000010 F
1P
b101000100000010 J
b101000100000010 N
b101000100000010 R
b101000100000010 V
b101000100000010 Z
b101000100000010 ^
b101000100000010 b
b101000100000010 f
b101000100000010 )
b0 '
b10100000101010 3
b10100000101010 A
b101 ,
b101 ;
b1 1
b1 ?
b100 .
b100 =
b0 (
b0 &
b101000100000010 2
b101000100000010 @
14
b1 +
b1 :
b110 0
b110 >
b111 -
b111 <
#110000
0%
#115000
b101000100000010 Q
1%
b100 9
#116000
b101000100000010 B
b101000100000010 O
#117000
b0 !
b0 F
b0 B
0P
b1101001110100 J
b1101001110100 N
b1101001110100 R
b1101001110100 V
b1101001110100 Z
b1101001110100 ^
b1101001110100 b
b1101001110100 f
b0 )
b101100010101100 3
b101100010101100 A
b111 1
b111 ?
b0 .
b0 =
b1101001110100 2
b1101001110100 @
04
b100 +
b100 :
b11 -
b11 <
#120000
0%
#125000
1%
b1000 9
#127000
b101000100000010 !
b101000100000010 F
1L
b101000100000010 B
b11110000010110 J
b100100111010001 N
b100100111010001 R
b100100111010001 V
b100100111010001 Z
b100100111010001 ^
b100100111010001 b
b100100111010001 f
b101000100000010 )
b11110000010110 3
b11110000010110 A
15
b0 ,
b0 ;
b1 1
b1 ?
b111 .
b111 =
b100100111010001 2
b100100111010001 @
b1 +
b1 :
b111 0
b111 >
#130000
0%
#135000
b11110000010110 M
1%
b1100 9
#136000
b11110000010110 K
#137000
b0 !
b0 F
1d
b0 B
b1110101111000001 J
b1110101111000001 N
b1110101111000001 R
b1110101111000001 V
b1110101111000001 Z
b1110101111000001 ^
b1111001110011000 b
b1110101111000001 f
b0 )
b1111001110011000 3
b1111001110011000 A
b110 ,
b110 ;
b101 1
b101 ?
b10 .
b10 =
b1110101111000001 2
b1110101111000001 @
14
b0 +
b0 :
b101 -
b101 <
#140000
0%
#145000
b1110101111000001 M
b1111001110011000 e
1%
b10000 9
#146000
b1110101111000001 K
b1111001110011000 c
#147000
b1111001110011000 $
b1111001110011000 I
b1111001110011000 E
b1110101111000001 !
b1110101111000001 F
0d
0L
1\
b1001110100001 b
b1110101111000001 B
b1001110100001 J
b1001110100001 N
b1001110100001 R
b1001110100001 V
b1001110100001 Z
b1001110100001 ^
b1001110100001 f
b1110101111000001 )
b11010111110001 3
b11010111110001 A
05
b1 ,
b1 ;
b0 1
b0 ?
b111 .
b111 =
b1111001110011000 &
b1001110100001 2
b1001110100001 @
b100 +
b100 :
b10 0
b10 >
b110 -
b110 <
#150000
0%
#155000
b1001110100001 ]
1%
b10100 9
#156000
b1001110100001 [
#157000
b1001110100001 #
b1001110100001 H
b1001110100001 $
b1001110100001 I
b1001110100001 D
b1001110100001 E
b0 !
b0 F
0\
1d
b0 B
b11110110100011 J
b11110110100011 N
b11110110100011 R
b11110110100011 V
b11110110100011 Z
b11110110100011 ^
b1011100101110110 b
b11110110100011 f
b0 )
b1001110100001 '
b1011100101110110 3
b1011100101110110 A
15
b110 ,
b110 ;
b11 1
b11 ?
b100 .
b100 =
b1001110100001 &
b11110110100011 2
b11110110100011 @
b110 +
b110 :
b111 0
b111 >
b100 -
b100 <
#160000
0%
#165000
b1011100101110110 e
1%
b11000 9
#166000
b1011100101110110 c
#167000
b1001110100001 !
b1001110100001 F
b1001110100001 B
b1101010100001 "
b1101010100001 G
1L
1X
0d
b1100011100001010 b
b1101010100001 J
b1100011100001010 N
b1100011100001010 R
b1100011100001010 V
b1100011100001010 Z
b1100011100001010 ^
b1100011100001010 f
b1110101111000001 C
b1001110100001 )
b1101010100001 3
b1101010100001 A
b0 ,
b0 ;
b100 1
b100 ?
b1101010100001 (
b1100011100001010 2
b1100011100001010 @
b11 +
b11 :
b0 0
b0 >
#170000
0%
#175000
b1100011100001010 Y
b1101010100001 M
1%
b11100 9
#176000
b1101010100001 C
b1100011100001010 W
b1101010100001 K
#177000
b1011100101110110 E
b101000100000010 !
b101000100000010 F
b101000100000010 #
b101000100000010 H
b1100011100001010 "
b1100011100001010 G
b1110010100110101 $
b1110010100110101 I
0L
1d
b101000100000010 B
b101000100000010 D
0X
b101100001001100 J
b101100001001100 N
b101100001001100 R
b101100001001100 V
b101100001001100 Z
b101100001001100 ^
b1110010100110101 b
b101100001001100 f
b1100011100001010 C
b101000100000010 )
b101000100000010 '
b1110010100110101 3
b1110010100110101 A
b110 ,
b110 ;
b1 1
b1 ?
b1 .
b1 =
b1100011100001010 (
b1110010100110101 &
b101100001001100 2
b101100001001100 @
04
b11 0
b11 >
b110 -
b110 <
#180000
0%
#185000
b1110010100110101 e
1%
b100000 9
#186000
b1110010100110101 E
b1110010100110101 c
#187000
b0 $
b0 I
b0 E
b1100011100001010 #
b1100011100001010 H
b1101010100001 !
b1101010100001 F
b1101010100001 "
b1101010100001 G
1P
b1100011100001010 D
b1101001111000010 b
b1101010100001 B
b1101001111000010 J
b1010000111101100 N
b1101001111000010 R
b1101001111000010 V
b1101001111000010 Z
b1101001111000010 ^
b1101001111000010 f
b1101010100001 C
b1101010100001 )
b1100011100001010 '
b1010000111101100 3
b1010000111101100 A
b1 ,
b1 ;
b0 1
b0 ?
b11 .
b11 =
b1101010100001 (
b0 &
b1101001111000010 2
b1101001111000010 @
14
b110 +
b110 :
b0 0
b0 >
b101 -
b101 <
#190000
0%
#195000
b1101001111000010 e
b1010000111101100 Q
1%
b100100 9
#196000
b1101001111000010 c
b1010000111101100 O
#197000
b1010000111101100 #
b1010000111101100 H
b1010000111101100 $
b1010000111101100 I
b0 !
b0 F
b1100011100001010 "
b1100011100001010 G
0P
b1010000111101100 D
1`
0d
b1010000111101100 E
b11000110011110 N
b0 B
b11000110011110 J
b11000110011110 R
b11000110011110 V
b11000110011110 Z
b11000110011110 ^
b11000110011110 b
b11000110011110 f
b1100011100001010 C
b0 )
b1010000111101100 '
b1101010110011011 3
b1101010110011011 A
05
b101 ,
b101 ;
b10 1
b10 ?
b1 .
b1 =
b1100011100001010 (
b1010000111101100 &
b11000110011110 2
b11000110011110 @
b101 +
b101 :
b11 0
b11 >
b1 -
b1 <
#200000
0%
#205000
b11000110011110 a
1%
b101000 9
#206000
b11000110011110 _
#207000
b0 "
b0 G
b1001110100001 B
b0 C
b10100010101101 !
b10100010101101 F
b1101010100001 #
b1101010100001 H
b1101010100001 $
b1101010100001 I
1\
0`
b1101010100001 D
b10100010101101 J
b10100010101101 N
b10100010101101 R
b10100010101101 V
b10100010101101 Z
b10100010101101 ^
b10100010101101 b
b10100010101101 f
b1101010100001 E
b10100010101101 )
b1101010100001 '
b101111100000100 3
b101111100000100 A
b11 ,
b11 ;
b100 1
b100 ?
b0 .
b0 =
b0 (
b1101010100001 &
b10100010101101 2
b10100010101101 @
b100 +
b100 :
b111 0
b111 >
b0 -
b0 <
#210000
0%
#215000
b10100010101101 ]
1%
b101100 9
#216000
b10100010101101 B
b10100010101101 [
#217000
b11000110011110 "
b11000110011110 G
b11000110011110 C
b0 $
b0 I
b1000101011000101 !
b1000101011000101 F
1d
b111010001001 J
b111010001001 N
b111010001001 R
b111010001001 V
b1000101011000101 Z
b111010001001 ^
b111010001001 b
b111010001001 f
b0 E
b1000101011000101 )
b1000101011000101 3
b1000101011000101 A
15
b100 ,
b100 ;
b11000110011110 (
b0 &
b111010001001 2
b111010001001 @
b110 +
b110 :
b101 0
b101 >
b10 -
b10 <
#220000
0%
#225000
b1000101011000101 ]
b111010001001 e
1%
b110000 9
#226000
b1000101011000101 B
b1000101011000101 [
b111010001001 c
#227000
b1000101011000101 "
b1000101011000101 G
b1100011100001010 !
b1100011100001010 F
b1000101011000101 C
b1100011100001010 B
b1100011100001010 #
b1100011100001010 H
0\
1`
0d
b101111010100011 Z
b1100011100001010 D
b101111010100011 J
b101111010100011 N
b101111010100011 R
b101111010100011 V
b10111000111100 ^
b101111010100011 b
b101111010100011 f
b1100011100001010 )
b1100011100001010 '
b10111000111100 3
b10111000111100 A
b101 ,
b101 ;
b11 1
b11 ?
b11 .
b11 =
b1000101011000101 (
b101111010100011 2
b101111010100011 @
04
b100 +
b100 :
b100 0
b100 >
#230000
0%
#235000
b10111000111100 a
1%
b110100 9
#236000
b10111000111100 _
#237000
b10111000111100 E
b10111000111100 B
b1100100000010011 #
b1100100000010011 H
b110111101100001 !
b110111101100001 F
1X
b110111101100001 $
b110111101100001 I
b110111101100001 ^
b1100100000010011 J
b1100100000010011 N
b1100100000010011 R
b1100100000010011 V
b1100100000010011 Z
b1100100000010011 b
b1100100000010011 f
b110111101100001 )
b1100100000010011 '
b110111101100001 3
b110111101100001 A
b101 1
b101 ?
b110111101100001 &
b1100100000010011 2
b1100100000010011 @
14
b11 +
b11 :
b101 -
b101 <
#240000
0%
#245000
b1100100000010011 Y
b110111101100001 a
1%
b111000 9
#246000
b110111101100001 B
b110111101100001 E
b1100100000010011 D
b1100100000010011 W
b110111101100001 _
#247000
b0 $
b0 I
b1100100000010011 "
b1100100000010011 G
b0 E
b1100100000010011 C
0`
1L
0X
b1001011001010110 ^
b1001011001010110 J
b1001011001010110 N
b1001011001010110 R
b1001011001010110 V
b1001011001010110 Z
b1001011001010110 b
b1001011001010110 f
b11111000100110 3
b11111000100110 A
05
b10 ,
b10 ;
b1100100000010011 (
b0 &
b1001011001010110 2
b1001011001010110 @
b0 +
b0 :
b11 0
b11 >
b111 -
b111 <
#250000
0%
#255000
b1001011001010110 M
1%
b111100 9
#256000
b1001011001010110 K
#257000
b111010001001 !
b111010001001 F
b111010001001 B
b0 #
b0 H
b0 D
b1001011001010110 "
b1001011001010110 G
b1001011001010110 $
b1001011001010110 I
0L
1P
b100001111101011 J
b100001111101011 N
b100001111101011 R
b100001111101011 V
b100001111101011 Z
b100001111101011 ^
b100001111101011 b
b100001111101011 f
b1001011001010110 C
b1001011001010110 E
b111010001001 )
b0 '
b1001111100100011 3
b1001111100100011 A
b111 ,
b111 ;
b110 1
b110 ?
b111 .
b111 =
b1001011001010110 (
b1001011001010110 &
b100001111101011 2
b100001111101011 @
b1 +
b1 :
b0 0
b0 >
b0 -
b0 <
#260000
0%
#265000
b100001111101011 Q
1%
b1000000 9
#266000
b100001111101011 O
#267000
b111010001001 "
b111010001001 G
b1000101011000101 $
b1000101011000101 I
1L
b1110001111011100 J
b1100111000000011 N
b1100111000000011 R
b1100111000000011 V
b1100111000000011 Z
b1100111000000011 ^
b1100111000000011 b
b1100111000000011 f
b111010001001 C
b1000101011000101 E
b1110001111011100 3
b1110001111011100 A
15
b0 ,
b0 ;
b10 .
b10 =
b111010001001 (
b1000101011000101 &
b1100111000000011 2
b1100111000000011 @
b110 0
b110 >
b100 -
b100 <
#270000
0%
#275000
b1100111000000011 Q
b1110001111011100 M
1%
b1000100 9
#276000
b1100111000000011 O
b1110001111011100 K
#277000
b1000101011000101 !
b1000101011000101 F
b1100100000010011 "
b1100100000010011 G
b1000101011000101 B
b1100100000010011 C
b1110001111011100 #
b1110001111011100 H
0L
1d
0P
b101000001100011 J
b1110001111011100 D
b101000001100011 N
b101000001100011 R
b101000001100011 V
b101000001100011 Z
b101000001100011 ^
b101100001001000 b
b101000001100011 f
b1000101011000101 )
b1110001111011100 '
b101100001001000 3
b101100001001000 A
b110 ,
b110 ;
b100 1
b100 ?
b0 .
b0 =
b1100100000010011 (
b101000001100011 2
b101000001100011 @
04
b110 +
b110 :
b11 0
b11 >
#280000
0%
#285000
b101100001001000 e
1%
b1001000 9
#286000
b101100001001000 c
#287000
b110111101100001 $
b110111101100001 I
b0 !
b0 F
b0 "
b0 G
b110111101100001 E
b0 B
b0 #
b0 H
b0 C
b1110011110010000 b
b0 D
b1110011110010000 J
b1110011110010000 N
b1110011110010000 R
b1110011110010000 V
b1110011110010000 Z
b1110011110010000 ^
b1110011110010000 f
b0 )
b0 '
b11010000110110 3
b11010000110110 A
05
b1 ,
b1 ;
b10 1
b10 ?
b10 .
b10 =
b0 (
b110111101100001 &
b1110011110010000 2
b1110011110010000 @
14
b10 0
b10 >
b101 -
b101 <
#290000
0%
#295000
b1110011110010000 e
1%
b1001100 9
#296000
b1110011110010000 c
#297000
b110111101100001 "
b110111101100001 G
b1000101011000101 $
b1000101011000101 I
b110111101100001 C
b1100100000010011 !
b1100100000010011 F
b1100100000010011 #
b1100100000010011 H
b1000101011000101 E
b1100100000010011 B
b1100100000010011 D
0d
b101010111100110 J
b101010111100110 N
b101010111100110 R
b101010111100110 V
b101010111100110 Z
b101010111100110 ^
b101010111100110 b
b101010111100110 f
b1100100000010011 )
b1100100000010011 '
b1100001011000000 3
b1100001011000000 A
b110 ,
b110 ;
b11 1
b11 ?
b11 .
b11 =
b110111101100001 (
b1000101011000101 &
b101010111100110 2
b101010111100110 @
04
b101 0
b101 >
b100 -
b100 <
#300000
0%
#305000
1%
b1010000 9
#307000
b110111101100001 #
b110111101100001 H
b0 "
b0 G
b110111101100001 D
b1100111000000011 $
b1100111000000011 I
b0 C
1\
b1100111000000011 E
b1000011011011 J
b1000011011011 N
b1000011011011 R
b1000011011011 V
b10101111110101 Z
b1000011011011 ^
b1000011011011 b
b1000011011011 f
b110111101100001 '
b10101111110101 3
b10101111110101 A
15
b100 ,
b100 ;
b101 .
b101 =
b0 (
b1100111000000011 &
b1000011011011 2
b1000011011011 @
b101 +
b101 :
b10 0
b10 >
b1 -
b1 <
#310000
0%
#315000
b10101111110101 ]
1%
b1010100 9
#316000
b10101111110101 [
#317000
b10101111110101 #
b10101111110101 H
b10101111110101 D
b1110011110010000 $
b1110011110010000 I
b1110001111011100 !
b1110001111011100 F
0\
b1110011110010000 E
b1111000110110010 Z
b1110001111011100 B
b1111000110110010 J
b1111000110110010 N
b1111000110110010 R
b1111000110110010 V
b1111000110110010 ^
b1111000110110010 b
b1111000110110010 f
b1110001111011100 )
b10101111110101 '
b11000111100100 3
b11000111100100 A
05
b110 ,
b110 ;
b0 1
b0 ?
b100 .
b100 =
b1110011110010000 &
b1111000110110010 2
b1111000110110010 @
b110 +
b110 :
b111 0
b111 >
b110 -
b110 <
#320000
0%
#325000
1%
b1011000 9
#327000
b1100100000010011 $
b1100100000010011 I
b1100111000000011 #
b1100111000000011 H
b1100100000010011 E
b1100111000000011 D
b110111101110000 J
b110111101110000 N
b110111101110000 R
b110111101110000 V
b110111101110000 Z
b110111101110000 ^
b110111101110000 b
b110111101110000 f
b1100111000000011 '
b1110101111001010 3
b1110101111001010 A
b10 ,
b10 ;
b1 .
b1 =
b1100100000010011 &
b110111101110000 2
b110111101110000 @
b111 +
b111 :
b10 0
b10 >
b11 -
b11 <
#330000
0%
#335000
1%
b1011100 9
#337000
b10101111110101 "
b10101111110101 G
b10101111110101 C
b1100100000010011 !
b1100100000010011 F
b1110001111011100 #
b1110001111011100 H
b1101110111100100 $
b1101110111100100 I
1P
b1100111000000011 E
b1100100000010011 B
b1110001111011100 D
b1101110111100100 J
b1101110111100100 N
b1101110111100100 R
b1101110111100100 V
b1101110111100100 Z
b1101110111100100 ^
b1101110111100100 b
b1101110111100100 f
b1100100000010011 )
b1110001111011100 '
b1101000010001011 3
b1101000010001011 A
b11 ,
b11 ;
b11 1
b11 ?
b0 .
b0 =
b10101111110101 (
b1101110111100100 &
b1101110111100100 2
b1101110111100100 @
14
b1 +
b1 :
b100 0
b100 >
b1 -
b1 <
#340000
0%
#345000
b1101110111100100 Q
1%
b1100000 9
#346000
b1101110111100100 E
b1101110111100100 O
#347000
b1110011110010000 "
b1110011110010000 G
b10101111110101 !
b10101111110101 F
b1110011110010000 C
b10101111110101 B
b0 $
b0 I
b110111101100001 #
b110111101100001 H
0P
b0 E
b110111101100001 D
b1001010001101011 J
b1001010001101011 N
b1001010001101011 R
b1001010001101011 V
b1001010001101011 Z
b1001010001101011 ^
b1001010001101011 b
b1001010001101011 f
b10101111110101 )
b110111101100001 '
b1100110101011110 3
b1100110101011110 A
b1 ,
b1 ;
b100 1
b100 ?
b101 .
b101 =
b1110011110010000 (
b0 &
b1001010001101011 2
b1001010001101011 @
04
b0 +
b0 :
b110 0
b110 >
b111 -
b111 <
#350000
0%
#355000
1%
b1100100 9
#357000
b0 !
b0 F
b0 #
b0 H
b0 "
b0 G
b0 B
b0 D
b0 C
b1110001111011100 $
b1110001111011100 I
1P
b11111101001010 J
b11111101001010 N
b11111101001010 R
b11111101001010 V
b11111101001010 Z
b11111101001010 ^
b11111101001010 b
b11111101001010 f
b1110001111011100 E
b0 )
b0 '
b1110101000001011 3
b1110101000001011 A
b10 1
b10 ?
b10 .
b10 =
b0 (
b1110001111011100 &
b11111101001010 2
b11111101001010 @
14
b1 +
b1 :
b10 0
b10 >
b0 -
b0 <
#360000
0%
#365000
b11111101001010 Q
1%
b1101000 9
#366000
b11111101001010 O
#367000
b110111101100001 "
b110111101100001 G
b10101111110101 #
b10101111110101 H
b110111101100001 C
b1100100000010011 !
b1100100000010011 F
b10101111110101 D
b1100100000010011 B
b111100110101111 $
b111100110101111 I
b1110000110010011 J
b111100110101111 N
b1110000110010011 R
b1110000110010011 V
b1110000110010011 Z
b1110000110010011 ^
b1110000110010011 b
b1110000110010011 f
b11111101001010 E
b1100100000010011 )
b10101111110101 '
b111100110101111 3
b111100110101111 A
15
b11 1
b11 ?
b100 .
b100 =
b110111101100001 (
b111100110101111 &
b1110000110010011 2
b1110000110010011 @
04
b11 +
b11 :
b101 0
b101 >
b1 -
b1 <
#370000
0%
#375000
b111100110101111 Q
1%
b1101100 9
#376000
b111100110101111 E
b111100110101111 O
#377000
b1110011110010000 "
b1110011110010000 G
b0 #
b0 H
b1110011110010000 C
b0 D
b10101111110101 $
b10101111110101 I
b1110001111011100 !
b1110001111011100 F
0P
1`
b10101111110101 E
b110000101110 N
b1110001111011100 B
b110000101110 J
b110000101110 R
b110000101110 V
b110000101110 Z
b1110110011100100 ^
b110000101110 b
b110000101110 f
b1110001111011100 )
b0 '
b1110110011100100 3
b1110110011100100 A
b101 ,
b101 ;
b0 1
b0 ?
b111 .
b111 =
b1110011110010000 (
b10101111110101 &
b110000101110 2
b110000101110 @
b110 0
b110 >
b100 -
b100 <
#380000
0%
#385000
b1110110011100100 a
1%
b1110000 9
#386000
b1110110011100100 _
#387000
b10101111110101 #
b10101111110101 H
b10101111110101 D
b0 "
b0 G
b0 C
b1110001111011100 $
b1110001111011100 I
0`
b1010011101100110 ^
b1010011101100110 J
b1010011101100110 N
b1010011101100110 R
b1010011101100110 V
b1010011101100110 Z
b1010011101100110 b
b1010011101100110 f
b1110001111011100 E
b10101111110101 '
b10101000 3
b10101000 A
05
b100 .
b100 =
b0 (
b1110001111011100 &
b1010011101100110 2
b1010011101100110 @
b10 +
b10 :
b10 0
b10 >
b0 -
b0 <
#390000
0%
#395000
1%
b1110100 9
#397000
b1110001111011100 #
b1110001111011100 H
b1110001111011100 "
b1110001111011100 G
b10101111110101 $
b10101111110101 I
b1100000100001000 !
b1100000100001000 F
1T
b0 B
b1110001111011100 D
b1110100010010010 J
b1110100010010010 N
b1100000100001000 R
b1110100010010010 V
b1110100010010010 Z
b1110100010010010 ^
b1110100010010010 b
b1110100010010010 f
b1110001111011100 C
b10101111110101 E
b1100000100001000 )
b1110001111011100 '
b1100000100001000 3
b1100000100001000 A
15
b10 ,
b10 ;
b10 1
b10 ?
b0 .
b0 =
b1110001111011100 (
b10101111110101 &
b1110100010010010 2
b1110100010010010 @
b1 +
b1 :
b0 0
b0 >
b100 -
b100 <
#400000
0%
#405000
b1100000100001000 U
1%
b1111000 9
#406000
b1100000100001000 B
b1100000100001000 S
#407000
b1100100000010011 !
b1100100000010011 F
b1100100000010011 B
b1010111001000001 $
b1010111001000001 I
b1110011110010000 "
b1110011110010000 G
b101001101001010 #
b101001101001010 H
1P
0T
1\
b1010111001000001 R
b111100110101111 D
b1010111001000001 J
b101001101001010 N
b1010111001000001 V
b1010111001000001 Z
b1010111001000001 ^
b1010111001000001 b
b1010111001000001 f
b1110011110010000 C
b1100100000010011 )
b101001101001010 '
b101001101001010 3
b101001101001010 A
b1 ,
b1 ;
b11 1
b11 ?
b1 .
b1 =
b1110011110010000 (
b1010111001000001 &
b1010111001000001 2
b1010111001000001 @
14
b100 +
b100 :
b110 0
b110 >
#410000
0%
#415000
b1010111001000001 ]
b101001101001010 Q
1%
b1111100 9
#416000
b1010111001000001 E
b101001101001010 D
b1010111001000001 [
b101001101001010 O
#417000
b1010111001000001 "
b1010111001000001 G
b1110011110010000 !
b1110011110010000 F
b1010111001000001 C
b1110011110010000 B
b1010111001000001 #
b1010111001000001 H
0P
b1010111001000001 D
b1110001111011100 $
b1110001111011100 I
0\
b1100011010010000 N
b1100011010010000 J
b1100011010010000 R
b1100011010010000 V
b1100011010010000 Z
b1100011010010000 ^
b1100011010010000 b
b1100011010010000 f
b1110001111011100 E
b1110011110010000 )
b1010111001000001 '
b1100111101001101 3
b1100111101001101 A
05
b110 1
b110 ?
b100 .
b100 =
b1010111001000001 (
b1110001111011100 &
b1100011010010000 2
b1100011010010000 @
04
b111 +
b111 :
b100 0
b100 >
b0 -
b0 <
#420000
0%
#425000
1%
b10000000 9
#427000
b0 !
b0 F
b0 B
b1100100000010011 #
b1100100000010011 H
b1100100000010011 D
b1100000100001000 $
b1100000100001000 I
b1000010000101 J
b1000010000101 N
b1000010000101 R
b1000010000101 V
b1000010000101 Z
b1000010000101 ^
b1000010000101 b
b1000010000101 f
b1100000100001000 E
b0 )
b1100100000010011 '
b1001110100111000 3
b1001110100111000 A
b10 ,
b10 ;
b111 1
b111 ?
b11 .
b11 =
b1100000100001000 &
b1000010000101 2
b1000010000101 @
b100 +
b100 :
b10 -
b10 <
#430000
0%
#435000
1%
b10000100 9
#437000
b1010111001000001 #
b1010111001000001 H
b1100000100001000 "
b1100000100001000 G
b1010111001000001 D
b100101101011111 $
b100101101011111 I
b100101101011111 !
b100101101011111 F
b1100000100001000 C
b0 E
1h
b100101101011111 J
b100101101011111 N
b100101101011111 R
b100101101011111 V
b100101101011111 Z
b100101101011111 ^
b100101101011111 b
b100101101011111 f
b100101101011111 )
b1010111001000001 '
b11001101110001 3
b11001101110001 A
b111 ,
b111 ;
b100 .
b100 =
b1100000100001000 (
b100101101011111 &
b100101101011111 2
b100101101011111 @
14
b111 +
b111 :
b10 0
b10 >
b111 -
b111 <
#440000
0%
#445000
b100101101011111 i
1%
b10001000 9
#446000
b100101101011111 B
b100101101011111 E
b100101101011111 g
#447000
b1110110011100100 $
b1110110011100100 I
b1110110011100100 B
b1100100000010011 #
b1100100000010011 H
b1110110011100100 E
b1110110011100100 "
b1110110011100100 G
b1100100000010011 D
b1110110011100100 C
1P
b1110110011100100 !
b1110110011100100 F
b1110100010001100 J
b100010001011111 N
b1110100010001100 R
b1110100010001100 V
b1110100010001100 Z
b1110100010001100 ^
b1110100010001100 b
b1110100010001100 f
b1110110011100100 )
b1100100000010011 '
b100010001011111 3
b100010001011111 A
15
b1 ,
b1 ;
b101 1
b101 ?
b11 .
b11 =
b1110110011100100 (
b1110110011100100 &
b1110100010001100 2
b1110100010001100 @
b101 0
b101 >
b101 -
b101 <
#450000
0%
#455000
b1110100010001100 i
b100010001011111 Q
1%
b10001100 9
#456000
b1110100010001100 g
b100010001011111 O
#457000
b1110100010001100 $
b1110100010001100 I
b1110100010001100 E
b1100000100001000 !
b1100000100001000 F
b100010001011111 #
b100010001011111 H
b1100000100001000 B
b10101110000110 "
b10101110000110 G
1L
0P
b100010001011111 D
0h
b1101001010110001 N
b10101110000110 J
b1101001010110001 R
b1101001010110001 V
b1101001010110001 Z
b1101001010110001 ^
b1101001010110001 b
b1101001010110001 f
b1110001111011100 C
b1100000100001000 )
b100010001011111 '
b10101110000110 3
b10101110000110 A
b0 ,
b0 ;
b10 1
b10 ?
b1 .
b1 =
b10101110000110 (
b1110100010001100 &
b1101001010110001 2
b1101001010110001 @
04
b101 +
b101 :
b0 0
b0 >
b111 -
b111 <
#460000
0%
#465000
b10101110000110 M
1%
b10010000 9
